…
#To get the model parameters for each nested list, we can combine sw_tidy within the mutate and map combo. The only real difference is now we unnest the generated column (named “tidy”). Last, because it’s easier to compare the model parameters side by side, we add one additional call to spread() from the tidyr package.

monthly_qty_by_cat2_fit %>%
    mutate(tidy = map(fit.ets, sw_tidy)) %>%
    unnest(tidy) %>%
    spread(key = category.secondary, value = estimate)

test <- monthly_spi1mo_fit %>%
    mutate(tidy = map(fit.ets, sw_tidy)) %>%
    unnest(tidy) %>%
    spread(key = sta, value = estimate)

## # A tibble: 128 x 13
##        data data.ts fit.ets term  `Cross Country … Cyclocross `Elite Road`
##    <list<d> <list>  <list>  <chr>            <dbl>      <dbl>        <dbl>
##  1 [60 × 2] <ts>    <ets>   alpha         0.0398           NA           NA
##  2 [60 × 2] <ts>    <ets>   gamma         0.000101         NA           NA
##  3 [60 × 2] <ts>    <ets>   l           321.               NA           NA
##  4 [60 × 2] <ts>    <ets>   s0            0.503            NA           NA
##  5 [60 × 2] <ts>    <ets>   s1            1.10             NA           NA
##  6 [60 × 2] <ts>    <ets>   s10           0.643            NA           NA
##  7 [60 × 2] <ts>    <ets>   s2            0.375            NA           NA
##  8 [60 × 2] <ts>    <ets>   s3            1.12             NA           NA
##  9 [60 × 2] <ts>    <ets>   s4            0.630            NA           NA
## 10 [60 × 2] <ts>    <ets>   s5            2.06             NA           NA
## # … with 118 more rows, and 6 more variables: `Endurance Road` <dbl>, `Fat
## #   Bike` <dbl>, `Over Mountain` <dbl>, Sport <dbl>, Trail <dbl>,
## #   Triathalon <dbl>
…
#sw_augment

#The augmented fitted and residual values can be achieved in much the same manner. This returns nine groups data. Note that we pass timetk_idx = TRUE to return the date format times as opposed to the regular (yearmon or numeric) time series.

augment_fit_ets <- monthly_qty_by_cat2_fit %>%
    mutate(augment = map(fit.ets, sw_augment, timetk_idx = TRUE, rename_index = "date")) %>%
    unnest(augment)

augment_fit_ets

## # A tibble: 538 x 8
## # Groups:   category.secondary [9]
##    category.second…     data data.ts fit.ets date       .actual .fitted
##    <chr>            <list<d> <list>  <list>  <date>       <dbl>   <dbl>
##  1 Cross Country R… [60 × 2] <ts>    <ets>   2011-01-01     122    373.
##  2 Cross Country R… [60 × 2] <ts>    <ets>   2011-02-01     489    201.
##  3 Cross Country R… [60 × 2] <ts>    <ets>   2011-03-01     505    465.
##  4 Cross Country R… [60 × 2] <ts>    <ets>   2011-04-01     343    161.
##  5 Cross Country R… [60 × 2] <ts>    <ets>   2011-05-01     263    567.
##  6 Cross Country R… [60 × 2] <ts>    <ets>   2011-06-01     735    296.
##  7 Cross Country R… [60 × 2] <ts>    <ets>   2011-07-01     183    741.
##  8 Cross Country R… [60 × 2] <ts>    <ets>   2011-08-01      66    220.
##  9 Cross Country R… [60 × 2] <ts>    <ets>   2011-09-01      97    381.
## 10 Cross Country R… [60 × 2] <ts>    <ets>   2011-10-01     189    123.
## # … with 528 more rows, and 1 more variable: .resid <dbl>
…
#sw_tidy_decomp

#We can create decompositions using the same procedure with sw_tidy_decomp() and the mutate and map combo.

monthly_qty_by_cat2_fit %>%
    mutate(decomp = map(fit.ets, sw_tidy_decomp, timetk_idx = TRUE, rename_index = "date")) %>%
    unnest(decomp)

## # A tibble: 538 x 9
## # Groups:   category.secondary [9]
##    category.second…     data data.ts fit.ets date       observed level
##    <chr>            <list<d> <list>  <list>  <date>        <dbl> <dbl>
##  1 Cross Country R… [60 × 2] <ts>    <ets>   2011-01-01      122  313.
##  2 Cross Country R… [60 × 2] <ts>    <ets>   2011-02-01      489  331.
##  3 Cross Country R… [60 × 2] <ts>    <ets>   2011-03-01      505  332.
##  4 Cross Country R… [60 × 2] <ts>    <ets>   2011-04-01      343  347.
##  5 Cross Country R… [60 × 2] <ts>    <ets>   2011-05-01      263  339.
##  6 Cross Country R… [60 × 2] <ts>    <ets>   2011-06-01      735  359.
##  7 Cross Country R… [60 × 2] <ts>    <ets>   2011-07-01      183  348.
##  8 Cross Country R… [60 × 2] <ts>    <ets>   2011-08-01       66  339.
##  9 Cross Country R… [60 × 2] <ts>    <ets>   2011-09-01       97  329.
## 10 Cross Country R… [60 × 2] <ts>    <ets>   2011-10-01      189  336.
## # … with 528 more rows, and 2 more variables: season <dbl>, slope <dbl>
…
#Step 4: Tidy the forecast

#Next, we can apply sw_sweep to get the forecast in a nice “tidy” data frame. We use the argument fitted = FALSE to remove the fitted values from the forecast (leave off if fitted values are desired). We set timetk_idx = TRUE to use dates instead of numeric values for the index. We’ll use unnest() to drop the left over list-columns and return an unnested data frame.

monthly_qty_by_cat2_fcast_tidy <- monthly_qty_by_cat2_fcast %>%
    mutate(sweep = map(fcast.ets, sw_sweep, fitted = FALSE, timetk_idx = TRUE)) %>%
    unnest(sweep)
monthly_qty_by_cat2_fcast_tidy

## # A tibble: 646 x 12
## # Groups:   category.secondary [9]
##    category.second…     data data.ts fit.ets fcast.ets index      key  
##    <chr>            <list<d> <list>  <list>  <list>    <date>     <chr>
##  1 Cross Country R… [60 × 2] <ts>    <ets>   <forecas… 2011-01-01 actu…
##  2 Cross Country R… [60 × 2] <ts>    <ets>   <forecas… 2011-02-01 actu…
##  3 Cross Country R… [60 × 2] <ts>    <ets>   <forecas… 2011-03-01 actu…
##  4 Cross Country R… [60 × 2] <ts>    <ets>   <forecas… 2011-04-01 actu…
##  5 Cross Country R… [60 × 2] <ts>    <ets>   <forecas… 2011-05-01 actu…
##  6 Cross Country R… [60 × 2] <ts>    <ets>   <forecas… 2011-06-01 actu…
##  7 Cross Country R… [60 × 2] <ts>    <ets>   <forecas… 2011-07-01 actu…
##  8 Cross Country R… [60 × 2] <ts>    <ets>   <forecas… 2011-08-01 actu…
##  9 Cross Country R… [60 × 2] <ts>    <ets>   <forecas… 2011-09-01 actu…
## 10 Cross Country R… [60 × 2] <ts>    <ets>   <forecas… 2011-10-01 actu…
## # … with 636 more rows, and 5 more variables: total.qty <dbl>,
## #   lo.80 <dbl>, lo.95 <dbl>, hi.80 <dbl>, hi.95 <dbl>
…
